{
  "name": "LCDP Colors",
  "about_url": "https://gitlab.com/coprodespossibles/theme-discourse",
  "license_url": "https://gitlab.com/coprodespossibles/theme-discourse/-/blob/main/LICENCE",
  "color_schemes": {
    "LCDP Light": {
      "primary": "222222",
      "secondary": "ffffff",
      "tertiary": "c7c7c7",
      "quaternary": "803159",
      "primary-medium": "ec6707",
      "primary-low-mid": "eeeeee",
      "header_background": "ec6707",
      "header_primary": "f7f7f7",
      "highlight": "ffff4d",
      "danger": "e45735",
      "success": "009900",
      "love": "fa6c8d"
    }
  },
  "components": ["https://gitlab.com/coprodespossibles/composant-discourse.git"]
}
